module gitlab.com/silenteer-oss/titan

go 1.13

require (
	emperror.dev/errors v0.7.0
	github.com/HdrHistogram/hdrhistogram-go v1.0.0 // indirect
	github.com/go-chi/chi v4.0.3+incompatible
	github.com/go-chi/cors v1.1.1
	github.com/go-playground/validator v9.31.0+incompatible
	github.com/go-playground/validator/v10 v10.2.0
	github.com/google/uuid v1.1.1
	github.com/gorilla/websocket v1.4.2
	github.com/nats-io/nats-server/v2 v2.2.1 // indirect
	github.com/nats-io/nats.go v1.10.1-0.20210330225420-a0b1f60162f8
	github.com/opentracing/opentracing-go v1.2.0
	github.com/pkg/errors v0.9.1
	github.com/prometheus/common v0.4.0
	github.com/sirupsen/logrus v1.6.0
	github.com/spf13/viper v1.7.1
	github.com/stretchr/testify v1.6.1
	github.com/uber/jaeger-client-go v2.25.0+incompatible
	github.com/uber/jaeger-lib v2.4.0+incompatible
	go.uber.org/atomic v1.6.0 // indirect
	golang.org/x/lint v0.0.0-20200302205851-738671d3881b // indirect
	golang.org/x/net v0.0.0-20210226172049-e18ecbb05110
	golang.org/x/tools v0.0.0-20200925191224-5d1fdd8fa346 // indirect
	google.golang.org/protobuf v1.25.0 // indirect
	gopkg.in/go-playground/assert.v1 v1.2.1 // indirect
	logur.dev/adapter/logrus v0.4.1
	logur.dev/logur v0.16.2
)
